…
#### Raster point extraction

`rasf` provides functionality to extract points from multi-layer rasters...

```
index <- sample(shape[['nindex']], 100)
pts <- xyCellLayerFromIndex(index, S) %>%
  dplyr::select(x,y,layer)
  
# # A tibble: 100 x 3
#          x       y layer
#      <dbl>   <dbl> <dbl>
#  1 6478765 2667705     2
#  2 6479135 2667965     1
#  3 6479315 2667705     2
#  4 6479005 2667915     2
#  5 6479085 2667505     1
#  6 6479085 2667585     1
#  7 6479105 2667815     1
#  8 6479435 2667835     1
#  9 6478895 2667715     3
# 10 6478955 2667675     3
# # … with 90 more rows
…
